Successfully connected to Database.
Server listening on / ...
Successfully connected to Database.
Server listening on / ...
Got to Index.
Successfully connected to Database.
Server listening on / ...
Got to Index.
Got to Index.
Successfully connected to Database.
Server listening on / ...
Got to Index.
DB ERROR  { Error: Connection lost: The server closed the connection.
    at Protocol.end (/var/www/mybusweb/node_modules/mysql/lib/protocol/Protocol.js:112:13)
    at Socket.<anonymous> (/var/www/mybusweb/node_modules/mysql/lib/Connection.js:97:28)
    at Socket.<anonymous> (/var/www/mybusweb/node_modules/mysql/lib/Connection.js:502:10)
    at emitNone (events.js:111:20)
    at Socket.emit (events.js:208:7)
    at endReadableNT (_stream_readable.js:1064:12)
    at _combinedTickCallback (internal/process/next_tick.js:139:11)
    at process._tickCallback (internal/process/next_tick.js:181:9) fatal: true, code: 'PROTOCOL_CONNECTION_LOST' }
Lost connection. Reconnecting...
Successfully connected to Database.
Got to Index.
Successfully connected to Database.
Server listening on / ...
Got to Index.
Got to Index.
Got to Index.
Successfully connected to Database.
Server listening on / ...
Successfully connected to Database.
Server listening on / ...
Successfully connected to Database.
Server listening on / ...
Got to Index.
Got to Index.
Successfully connected to Database.
Server listening on / ...
Got to Index.
Got to Index.
Got to Index.
Got to Index.
ReferenceError: pk is not defined
    at /var/www/mybusweb/index.js:365:35
    at Layer.handle [as handle_request] (/var/www/mybusweb/node_modules/express/lib/router/layer.js:95:5)
    at next (/var/www/mybusweb/node_modules/express/lib/router/route.js:137:13)
    at Route.dispatch (/var/www/mybusweb/node_modules/express/lib/router/route.js:112:3)
    at Layer.handle [as handle_request] (/var/www/mybusweb/node_modules/express/lib/router/layer.js:95:5)
    at /var/www/mybusweb/node_modules/express/lib/router/index.js:281:22
    at param (/var/www/mybusweb/node_modules/express/lib/router/index.js:354:14)
    at param (/var/www/mybusweb/node_modules/express/lib/router/index.js:365:14)
    at Function.process_params (/var/www/mybusweb/node_modules/express/lib/router/index.js:410:3)
    at next (/var/www/mybusweb/node_modules/express/lib/router/index.js:275:10)
ReferenceError: pk is not defined
    at /var/www/mybusweb/index.js:365:35
    at Layer.handle [as handle_request] (/var/www/mybusweb/node_modules/express/lib/router/layer.js:95:5)
    at next (/var/www/mybusweb/node_modules/express/lib/router/route.js:137:13)
    at Route.dispatch (/var/www/mybusweb/node_modules/express/lib/router/route.js:112:3)
    at Layer.handle [as handle_request] (/var/www/mybusweb/node_modules/express/lib/router/layer.js:95:5)
    at /var/www/mybusweb/node_modules/express/lib/router/index.js:281:22
    at param (/var/www/mybusweb/node_modules/express/lib/router/index.js:354:14)
    at param (/var/www/mybusweb/node_modules/express/lib/router/index.js:365:14)
    at Function.process_params (/var/www/mybusweb/node_modules/express/lib/router/index.js:410:3)
    at next (/var/www/mybusweb/node_modules/express/lib/router/index.js:275:10)
ReferenceError: pk is not defined
    at /var/www/mybusweb/index.js:365:35
    at Layer.handle [as handle_request] (/var/www/mybusweb/node_modules/express/lib/router/layer.js:95:5)
    at next (/var/www/mybusweb/node_modules/express/lib/router/route.js:137:13)
    at Route.dispatch (/var/www/mybusweb/node_modules/express/lib/router/route.js:112:3)
    at Layer.handle [as handle_request] (/var/www/mybusweb/node_modules/express/lib/router/layer.js:95:5)
    at /var/www/mybusweb/node_modules/express/lib/router/index.js:281:22
    at param (/var/www/mybusweb/node_modules/express/lib/router/index.js:354:14)
    at param (/var/www/mybusweb/node_modules/express/lib/router/index.js:365:14)
    at Function.process_params (/var/www/mybusweb/node_modules/express/lib/router/index.js:410:3)
    at next (/var/www/mybusweb/node_modules/express/lib/router/index.js:275:10)
ReferenceError: pk is not defined
    at /var/www/mybusweb/index.js:365:35
    at Layer.handle [as handle_request] (/var/www/mybusweb/node_modules/express/lib/router/layer.js:95:5)
    at next (/var/www/mybusweb/node_modules/express/lib/router/route.js:137:13)
    at Route.dispatch (/var/www/mybusweb/node_modules/express/lib/router/route.js:112:3)
    at Layer.handle [as handle_request] (/var/www/mybusweb/node_modules/express/lib/router/layer.js:95:5)
    at /var/www/mybusweb/node_modules/express/lib/router/index.js:281:22
    at param (/var/www/mybusweb/node_modules/express/lib/router/index.js:354:14)
    at param (/var/www/mybusweb/node_modules/express/lib/router/index.js:365:14)
    at Function.process_params (/var/www/mybusweb/node_modules/express/lib/router/index.js:410:3)
    at next (/var/www/mybusweb/node_modules/express/lib/router/index.js:275:10)
ReferenceError: pk is not defined
    at /var/www/mybusweb/index.js:365:35
    at Layer.handle [as handle_request] (/var/www/mybusweb/node_modules/express/lib/router/layer.js:95:5)
    at next (/var/www/mybusweb/node_modules/express/lib/router/route.js:137:13)
    at Route.dispatch (/var/www/mybusweb/node_modules/express/lib/router/route.js:112:3)
    at Layer.handle [as handle_request] (/var/www/mybusweb/node_modules/express/lib/router/layer.js:95:5)
    at /var/www/mybusweb/node_modules/express/lib/router/index.js:281:22
    at param (/var/www/mybusweb/node_modules/express/lib/router/index.js:354:14)
    at param (/var/www/mybusweb/node_modules/express/lib/router/index.js:365:14)
    at Function.process_params (/var/www/mybusweb/node_modules/express/lib/router/index.js:410:3)
    at next (/var/www/mybusweb/node_modules/express/lib/router/index.js:275:10)
ReferenceError: pk is not defined
    at /var/www/mybusweb/index.js:365:35
    at Layer.handle [as handle_request] (/var/www/mybusweb/node_modules/express/lib/router/layer.js:95:5)
    at next (/var/www/mybusweb/node_modules/express/lib/router/route.js:137:13)
    at Route.dispatch (/var/www/mybusweb/node_modules/express/lib/router/route.js:112:3)
    at Layer.handle [as handle_request] (/var/www/mybusweb/node_modules/express/lib/router/layer.js:95:5)
    at /var/www/mybusweb/node_modules/express/lib/router/index.js:281:22
    at param (/var/www/mybusweb/node_modules/express/lib/router/index.js:354:14)
    at param (/var/www/mybusweb/node_modules/express/lib/router/index.js:365:14)
    at Function.process_params (/var/www/mybusweb/node_modules/express/lib/router/index.js:410:3)
    at next (/var/www/mybusweb/node_modules/express/lib/router/index.js:275:10)
ReferenceError: pk is not defined
    at /var/www/mybusweb/index.js:365:35
    at Layer.handle [as handle_request] (/var/www/mybusweb/node_modules/express/lib/router/layer.js:95:5)
    at next (/var/www/mybusweb/node_modules/express/lib/router/route.js:137:13)
    at Route.dispatch (/var/www/mybusweb/node_modules/express/lib/router/route.js:112:3)
    at Layer.handle [as handle_request] (/var/www/mybusweb/node_modules/express/lib/router/layer.js:95:5)
    at /var/www/mybusweb/node_modules/express/lib/router/index.js:281:22
    at param (/var/www/mybusweb/node_modules/express/lib/router/index.js:354:14)
    at param (/var/www/mybusweb/node_modules/express/lib/router/index.js:365:14)
    at Function.process_params (/var/www/mybusweb/node_modules/express/lib/router/index.js:410:3)
    at next (/var/www/mybusweb/node_modules/express/lib/router/index.js:275:10)
ReferenceError: pk is not defined
    at /var/www/mybusweb/index.js:365:35
    at Layer.handle [as handle_request] (/var/www/mybusweb/node_modules/express/lib/router/layer.js:95:5)
    at next (/var/www/mybusweb/node_modules/express/lib/router/route.js:137:13)
    at Route.dispatch (/var/www/mybusweb/node_modules/express/lib/router/route.js:112:3)
    at Layer.handle [as handle_request] (/var/www/mybusweb/node_modules/express/lib/router/layer.js:95:5)
    at /var/www/mybusweb/node_modules/express/lib/router/index.js:281:22
    at param (/var/www/mybusweb/node_modules/express/lib/router/index.js:354:14)
    at param (/var/www/mybusweb/node_modules/express/lib/router/index.js:365:14)
    at Function.process_params (/var/www/mybusweb/node_modules/express/lib/router/index.js:410:3)
    at next (/var/www/mybusweb/node_modules/express/lib/router/index.js:275:10)
